[
  {
    "title": "Live Chat Support Setting",
    "labelchat": "Enable/Disable Chat",
    "enable": "Enable",
    "disable": "Disable",
    "labeltime": "Time Duration",
    "time": "",
    "labelchatmode": "Chat Mode",
    "online": "Online",
    "offline": "Offline",
    "labelbypass": "Bypass Pre-Chat Form",
    "y": "yes",
    "n": "no",
    "labelsend": "Send chat transcript to the visitor?",
    "yes": "yes",
    "no": "no",
    "ask": "ask the visitor",
    "labeltrigger": "Trigger Chatbox Automatically?",
    "labelshow": "Show feedback form",
    "labeldepartment": "Show a department selection box to the visitor?",
    "labelsuggest": "Suggest agent in Chatbox Randomly to the visitor",
    "labelfile": "Enable/Disable File Sharing",
    "labelfiletype": "Allowed File Types",
    "filetypes": "",
    "labelupload": "File upload size ( In kilobytes (KB) )",
    "fileupload": "",
    "labelshowpowered": "Show Powered By",
    "y1": "Yes, By PLUKTIME",
    "y2": "Yes, By My OWN",
    "n1": "no",
    "txtarea": "",
    "btn": "SAVE"
  }
]
